…
Strange plots – We can tell from the plot that maybe Molokai use diff
monitor tyoe or maybe it use Fahrenheit while Waterhole use Celsius
degree, etc.

- Thus, we should do stuff like above to notice these numeric feature
  before doing anything analytical.

## Grouping w `group_by()`

``` r
weather_df |> 
  group_by(name, month)
```

    ## # A tibble: 2,190 × 7
    ## # Groups:   name, month [72]
    ##    name           id          date        prcp  tmax  tmin month     
    ##    <chr>          <chr>       <date>     <dbl> <dbl> <dbl> <date>    
    ##  1 CentralPark_NY USW00094728 2021-01-01   157   4.4   0.6 2021-01-01
    ##  2 CentralPark_NY USW00094728 2021-01-02    13  10.6   2.2 2021-01-01
    ##  3 CentralPark_NY USW00094728 2021-01-03    56   3.3   1.1 2021-01-01
    ##  4 CentralPark_NY USW00094728 2021-01-04     5   6.1   1.7 2021-01-01
    ##  5 CentralPark_NY USW00094728 2021-01-05     0   5.6   2.2 2021-01-01
    ##  6 CentralPark_NY USW00094728 2021-01-06     0   5     1.1 2021-01-01
    ##  7 CentralPark_NY USW00094728 2021-01-07     0   5    -1   2021-01-01
    ##  8 CentralPark_NY USW00094728 2021-01-08     0   2.8  -2.7 2021-01-01
    ##  9 CentralPark_NY USW00094728 2021-01-09     0   2.8  -4.3 2021-01-01
    ## 10 CentralPark_NY USW00094728 2021-01-10     0   5    -1.6 2021-01-01
    ## # ℹ 2,180 more rows
…
## Counting w `summarise()`

``` r
weather_df |> 
  group_by(name, month) |> 
  summarise(n_obs = n())
```

    ## `summarise()` has grouped output by 'name'. You can override using the
    ## `.groups` argument.

    ## # A tibble: 72 × 3
    ## # Groups:   name [3]
    ##    name           month      n_obs
    ##    <chr>          <date>     <int>
    ##  1 CentralPark_NY 2021-01-01    31
    ##  2 CentralPark_NY 2021-02-01    28
    ##  3 CentralPark_NY 2021-03-01    31
    ##  4 CentralPark_NY 2021-04-01    30
    ##  5 CentralPark_NY 2021-05-01    31
    ##  6 CentralPark_NY 2021-06-01    30
    ##  7 CentralPark_NY 2021-07-01    31
    ##  8 CentralPark_NY 2021-08-01    31
    ##  9 CentralPark_NY 2021-09-01    30
    ## 10 CentralPark_NY 2021-10-01    31
    ## # ℹ 62 more rows

``` r
weather_df |>
  group_by(month) |>
  summarize(
    n_obs = n(),
    n_days = n_distinct(date))
```

    ## # A tibble: 24 × 3
    ##    month      n_obs n_days
    ##    <date>     <int>  <int>
    ##  1 2021-01-01    93     31
    ##  2 2021-02-01    84     28
    ##  3 2021-03-01    93     31
    ##  4 2021-04-01    90     30
    ##  5 2021-05-01    93     31
    ##  6 2021-06-01    90     30
    ##  7 2021-07-01    93     31
    ##  8 2021-08-01    93     31
    ##  9 2021-09-01    90     30
    ## 10 2021-10-01    93     31
    ## # ℹ 14 more rows
…
- `TRUE     ~ ""`: If neither of the above conditions is met (i.e., when
  tmax is neither less than 5 nor greater than or equal to 5), the cold
  column is set to an empty string (““), effectively marking it as
  blank.

``` r
weather_df |> 
  count(name, month) |> 
  pivot_wider(
    names_from = name,
    values_from = n
  )
```

    ## # A tibble: 24 × 4
    ##    month      CentralPark_NY Molokai_HI Waterhole_WA
    ##    <date>              <int>      <int>        <int>
    ##  1 2021-01-01             31         31           31
    ##  2 2021-02-01             28         28           28
    ##  3 2021-03-01             31         31           31
    ##  4 2021-04-01             30         30           30
    ##  5 2021-05-01             31         31           31
    ##  6 2021-06-01             30         30           30
    ##  7 2021-07-01             31         31           31
    ##  8 2021-08-01             31         31           31
    ##  9 2021-09-01             30         30           30
    ## 10 2021-10-01             31         31           31
    ## # ℹ 14 more rows
…
``` r
weather_df |> 
  group_by(name, month) |> 
  summarise(
    mean_tmax = mean(tmax, na.rm = TRUE),
    median_tmax = median(tmax, na.rm = TRUE),
    std_tmax = sd(tmax, na.rm = TRUE),
  ) 
```

    ## `summarise()` has grouped output by 'name'. You can override using the
    ## `.groups` argument.

    ## # A tibble: 72 × 5
    ## # Groups:   name [3]
    ##    name           month      mean_tmax median_tmax std_tmax
    ##    <chr>          <date>         <dbl>       <dbl>    <dbl>
    ##  1 CentralPark_NY 2021-01-01      4.27         5       3.34
    ##  2 CentralPark_NY 2021-02-01      3.87         2.8     3.99
    ##  3 CentralPark_NY 2021-03-01     12.3         12.2     6.91
    ##  4 CentralPark_NY 2021-04-01     17.6         18.0     5.26
    ##  5 CentralPark_NY 2021-05-01     22.1         22.2     5.63
    ##  6 CentralPark_NY 2021-06-01     28.1         27.8     4.32
    ##  7 CentralPark_NY 2021-07-01     28.4         28.3     3.17
    ##  8 CentralPark_NY 2021-08-01     28.8         28.3     2.95
    ##  9 CentralPark_NY 2021-09-01     24.8         24.4     2.52
    ## 10 CentralPark_NY 2021-10-01     19.9         20.6     3.66
    ## # ℹ 62 more rows

``` r
weather_df |>
  group_by(name, month) |>
  summarize(across(tmin:prcp, mean))
```

    ## `summarise()` has grouped output by 'name'. You can override using the
    ## `.groups` argument.

    ## # A tibble: 72 × 5
    ## # Groups:   name [3]
    ##    name           month       tmin  tmax  prcp
    ##    <chr>          <date>     <dbl> <dbl> <dbl>
    ##  1 CentralPark_NY 2021-01-01 -1.15  4.27  18.9
    ##  2 CentralPark_NY 2021-02-01 -1.39  3.87  46.6
    ##  3 CentralPark_NY 2021-03-01  3.1  12.3   28.0
    ##  4 CentralPark_NY 2021-04-01  7.48 17.6   22.8
    ##  5 CentralPark_NY 2021-05-01 12.2  22.1   35.7
    ##  6 CentralPark_NY 2021-06-01 18.9  28.1   22.2
    ##  7 CentralPark_NY 2021-07-01 20.6  28.4   90.9
    ##  8 CentralPark_NY 2021-08-01 21.8  28.8   84.5
    ##  9 CentralPark_NY 2021-09-01 17.8  24.8   84.9
    ## 10 CentralPark_NY 2021-10-01 13.4  19.9   43.1
    ## # ℹ 62 more rows
…
### ranking things or put them into numeric order to find ~est record.

``` r
weather_df |> 
  group_by(name, month) |> 
  mutate(
    tmax_rank = min_rank(tmax)
  )
```

    ## # A tibble: 2,190 × 8
    ## # Groups:   name, month [72]
    ##    name           id          date        prcp  tmax  tmin month      tmax_rank
    ##    <chr>          <chr>       <date>     <dbl> <dbl> <dbl> <date>         <int>
    ##  1 CentralPark_NY USW00094728 2021-01-01   157   4.4   0.6 2021-01-01        14
    ##  2 CentralPark_NY USW00094728 2021-01-02    13  10.6   2.2 2021-01-01        31
    ##  3 CentralPark_NY USW00094728 2021-01-03    56   3.3   1.1 2021-01-01        13
    ##  4 CentralPark_NY USW00094728 2021-01-04     5   6.1   1.7 2021-01-01        20
    ##  5 CentralPark_NY USW00094728 2021-01-05     0   5.6   2.2 2021-01-01        19
    ##  6 CentralPark_NY USW00094728 2021-01-06     0   5     1.1 2021-01-01        16
    ##  7 CentralPark_NY USW00094728 2021-01-07     0   5    -1   2021-01-01        16
    ##  8 CentralPark_NY USW00094728 2021-01-08     0   2.8  -2.7 2021-01-01         8
    ##  9 CentralPark_NY USW00094728 2021-01-09     0   2.8  -4.3 2021-01-01         8
    ## 10 CentralPark_NY USW00094728 2021-01-10     0   5    -1.6 2021-01-01        16
    ## # ℹ 2,180 more rows

``` r
weather_df |> 
  group_by(name, month) |> 
  mutate(
    tmax_rank = min_rank(tmax)
  ) |> 
  filter(tmax_rank < 2)
```

    ## # A tibble: 92 × 8
    ## # Groups:   name, month [72]
    ##    name           id          date        prcp  tmax  tmin month      tmax_rank
    ##    <chr>          <chr>       <date>     <dbl> <dbl> <dbl> <date>         <int>
    ##  1 CentralPark_NY USW00094728 2021-01-29     0  -3.8  -9.9 2021-01-01         1
    ##  2 CentralPark_NY USW00094728 2021-02-08     0  -1.6  -8.2 2021-02-01         1
    ##  3 CentralPark_NY USW00094728 2021-03-02     0   0.6  -6   2021-03-01         1
    ##  4 CentralPark_NY USW00094728 2021-04-02     0   3.9  -2.1 2021-04-01         1
    ##  5 CentralPark_NY USW00094728 2021-05-29   117  10.6   8.3 2021-05-01         1
    ##  6 CentralPark_NY USW00094728 2021-05-30   226  10.6   8.3 2021-05-01         1
    ##  7 CentralPark_NY USW00094728 2021-06-11     0  20.6  16.7 2021-06-01         1
    ##  8 CentralPark_NY USW00094728 2021-06-12     0  20.6  16.7 2021-06-01         1
    ##  9 CentralPark_NY USW00094728 2021-07-03    86  18.9  15   2021-07-01         1
    ## 10 CentralPark_NY USW00094728 2021-08-04     0  24.4  19.4 2021-08-01         1
    ## # ℹ 82 more rows
…
### lag

Offsets, especially lags, are used to compare an observation to it’s
previous value. This is useful, for example, to find the day-by-day
change in max temperature within each station over the year, or how does
yesterday’s temp relate to today’s temp:

``` r
weather_df |> 
  group_by(name) |> 
  mutate(yesterday_tmax = lag(tmax, 3))
```

    ## # A tibble: 2,190 × 8
    ## # Groups:   name [3]
    ##    name           id      date        prcp  tmax  tmin month      yesterday_tmax
    ##    <chr>          <chr>   <date>     <dbl> <dbl> <dbl> <date>              <dbl>
    ##  1 CentralPark_NY USW000… 2021-01-01   157   4.4   0.6 2021-01-01           NA  
    ##  2 CentralPark_NY USW000… 2021-01-02    13  10.6   2.2 2021-01-01           NA  
    ##  3 CentralPark_NY USW000… 2021-01-03    56   3.3   1.1 2021-01-01           NA  
    ##  4 CentralPark_NY USW000… 2021-01-04     5   6.1   1.7 2021-01-01            4.4
    ##  5 CentralPark_NY USW000… 2021-01-05     0   5.6   2.2 2021-01-01           10.6
    ##  6 CentralPark_NY USW000… 2021-01-06     0   5     1.1 2021-01-01            3.3
    ##  7 CentralPark_NY USW000… 2021-01-07     0   5    -1   2021-01-01            6.1
    ##  8 CentralPark_NY USW000… 2021-01-08     0   2.8  -2.7 2021-01-01            5.6
    ##  9 CentralPark_NY USW000… 2021-01-09     0   2.8  -4.3 2021-01-01            5  
    ## 10 CentralPark_NY USW000… 2021-01-10     0   5    -1.6 2021-01-01            5  
    ## # ℹ 2,180 more rows
…
